…
The resulting `rnet_y_split` object is as follows:

``` r
rnet_y_split
```

    Simple feature collection with 175 features and 5 fields
    Geometry type: LINESTRING
    Dimension:     XY
    Bounding box:  xmin: -3.20607 ymin: 55.95036 xmax: -3.19669 ymax: 55.95206
    Geodetic CRS:  WGS 84
    # A tibble: 175 × 6
         cat value Quietness length                                geom length_split
     * <int> <dbl>     <dbl>  <dbl>                    <LINESTRING [°]>        <dbl>
     1     1     0        50  10.6  (-3.20565 55.95051, -3.20564 55.95…         5.28
     2     1     0        50  10.6  (-3.205632 55.95046, -3.20562 55.9…         5.28
     3     2     0        40   9.52 (-3.2027 55.95092, -3.20266 55.950…         9.51
     4     3     3        95  32.6  (-3.19727 55.95184, -3.197147 55.9…         8.12
     5     3     3        95  32.6  (-3.197147 55.95182, -3.19706 55.9…         8.12
     6     3     3        95  32.6  (-3.197024 55.95179, -3.196902 55.…         8.12
     7     3     3        95  32.6  (-3.196902 55.95177, -3.19678 55.9…         8.12
     8     4    32        50  88.1  (-3.20409 55.95078, -3.20394 55.95…         9.76
     9     4    32        50  88.1  (-3.20394 55.95081, -3.20379 55.95…         9.76
    10     4    32        50  88.1  (-3.20379 55.95083, -3.20364 55.95…         9.76
    # ℹ 165 more rows

``` r
rnet_y
```

    Simple feature collection with 26 features and 4 fields
    Geometry type: LINESTRING
    Dimension:     XY
    Bounding box:  xmin: -3.20607 ymin: 55.95036 xmax: -3.19669 ymax: 55.95206
    Geodetic CRS:  WGS 84
    # A tibble: 26 × 5
       value Quietness length index                                         geometry
       <dbl>     <dbl>  <dbl> <int>                                 <LINESTRING [°]>
     1     0        50  10.6      8 (-3.20565 55.95051, -3.20564 55.95048, -3.20562…
     2     0        40   9.52   107 (-3.2027 55.95092, -3.20266 55.95086, -3.20266 …
     3     3        95  32.6    206 (-3.19727 55.95184, -3.19706 55.9518, -3.19678 …
     4    32        50  88.1    403           (-3.20409 55.95078, -3.20274 55.95101)
     5    32        40  10.4    406 (-3.20274 55.95101, -3.20273 55.95098, -3.2027 …
     6    36        50 102.     413           (-3.20565 55.95051, -3.20409 55.95078)
     7   122        50  10.3    631 (-3.19717 55.95191, -3.19709 55.95193, -3.19707…
     8   122        50   6.96   632 (-3.1972 55.95197, -3.19719 55.95194, -3.19717 …
     9   147        60  15.1    709 (-3.20592 55.95036, -3.20585 55.95041, -3.20583…
    10   147        60  18.1    710 (-3.20594 55.95063, -3.20589 55.95058, -3.20585…
    # ℹ 16 more rows
…
